3.5 How to process data with the dplyr package | IntRoduction to R
…
The example below modifies the Mileage variable. It divides Mileage by the mean mileage for the given make.

vehicles %>%
  select(Make, Price, Mileage, Model) %>%
  group_by(Make) %>%
  mutate(Mileage = Mileage/mean(Mileage, na.rm=TRUE))

## # A tibble: 2,400 × 4
## # Groups:   Make [6]
##    Make    Price Mileage Model
##    <chr>   <dbl>   <dbl> <chr>
##  1 Peugeot  8799   0.671 206  
##  2 Peugeot 15500   0.900 206  
##  3 Peugeot 11900   1.70  206  
##  4 Peugeot 10999   1.30  206  
##  5 Peugeot 11900   1.15  206  
##  6 Peugeot 19900   0.682 206  
##  7 Peugeot 16400   1.18  206  
##  8 Peugeot 13900   1.03  206  
##  9 Peugeot 13900   1.26  206  
## 10 Peugeot 18400   0.450 206  
## # … with 2,390 more rows
…
